<svg width="452" height="546" viewBox="0 0 452 546" fill="none" xmlns="http://www.w3.org/2000/svg">
<path d="M125.224 4.91998H422.474V533.2H125.224V4.91998Z" fill="#F2F8FF"/>
<g style="mix-blend-mode:multiply">
<path d="M290.114 12.26C290.114 12.26 290.114 284.26 373.194 347.59L340.684 535L429.444 536.54L424.284 201.86L427.894 13.94L290.114 12.26Z" fill="#C6DCF7"/>
</g>
<g style="mix-blend-mode:multiply" opacity="0.5">
<path d="M213.054 165.59C212.983 172.473 210.724 179.156 206.604 184.67C214.274 186.67 223.144 187.37 231.934 184.44C248.934 178.78 261.804 161.11 270.124 131.94V14.84H276.734V131.84C285.054 161.05 297.904 178.73 314.944 184.4C321.481 186.487 328.431 186.94 335.184 185.72C330.534 180.019 327.963 172.906 327.894 165.55H393.304C393.22 171.621 391.449 177.548 388.187 182.669C384.925 187.79 380.302 191.901 374.836 194.543C369.369 197.185 363.276 198.252 357.237 197.627C351.198 197.001 345.452 194.706 340.644 191C336.387 192.035 332.024 192.568 327.644 192.59C322.692 192.608 317.769 191.831 313.064 190.29C297.734 185.2 285.554 171.9 276.734 150.68V205.13H306.064C305.914 213.7 302.404 221.868 296.291 227.875C290.178 233.882 281.95 237.248 273.379 237.248C264.808 237.248 256.58 233.882 250.466 227.875C244.353 221.868 240.844 213.7 240.694 205.13H270.124V150.83C261.304 171.96 249.124 185.21 233.854 190.29C229.148 191.831 224.225 192.608 219.274 192.59C213.351 192.537 207.471 191.586 201.834 189.77C197.129 193.863 191.352 196.526 185.184 197.443C179.016 198.361 172.714 197.497 167.021 194.951C161.329 192.405 156.483 188.285 153.055 183.075C149.627 177.866 147.76 171.785 147.674 165.55L213.054 165.59Z" fill="#DAE7F7"/>
</g>
<path opacity="0.6" d="M131.904 20.85H422.764V136.41H131.904V20.85Z" fill="#DAE7F7"/>
<g style="mix-blend-mode:overlay" opacity="0.8">
<path d="M345.194 15.99L408.834 132.07H351.354L285.174 18.25L345.194 15.99Z" fill="#DAE7F7"/>
</g>
<g style="mix-blend-mode:overlay" opacity="0.8">
<path d="M220.664 15.99L284.304 132.07H226.824L160.644 18.25L220.664 15.99Z" fill="#DAE7F7"/>
</g>
<path d="M123.274 543.85H430.504V13.1H123.274V543.85ZM416.744 530.09H137.064V26.87H416.744V530.09Z" fill="#1B4B94"/>
<path d="M251.044 381.6C251.044 381.6 219.624 400.71 218.734 399.76C217.844 398.81 209.734 396.16 209.734 394.99C209.734 393.82 205.414 374.36 205.414 374.36L229.554 351.62L251.014 381.62L251.044 381.6Z" fill="#F7C29E"/>
<path opacity="0.6" d="M207.794 384.94C213.714 385.68 226.384 384.81 239.624 365.65L229.624 351.65L205.484 374.39C205.484 374.39 206.654 379.69 207.794 384.94Z" fill="#E7945A"/>
<path d="M53.7336 328.89C53.7336 328.89 44.2436 307.3 42.4736 307.69C40.7036 308.08 47.2836 321.38 45.3736 322.2C43.4636 323.02 24.5636 299.29 23.3736 300.3C22.1836 301.31 33.1436 321.94 31.9436 322.42C30.7436 322.9 11.8236 307.12 9.94363 308.87C8.06363 310.62 25.9936 327.61 24.5236 328.57C23.0536 329.53 1.88362 318.38 0.0536194 321.17C-1.23638 323.17 21.1836 334.45 20.1636 335.54C19.1436 336.63 2.16362 334.03 1.68362 335.92C1.38363 337.09 30.1136 348.39 30.1136 348.39C30.1136 348.39 45.5136 343.62 46.2936 343.52C47.0736 343.42 53.7336 328.89 53.7336 328.89Z" fill="#F7C29E"/>
<path d="M55.5036 320.82C55.5036 320.82 141.504 400.74 175.824 392C175.824 392 185.104 391.32 203.044 385.71C203.044 385.71 221.274 400.17 249.514 372.31L268.634 368.2C268.634 368.2 292.784 362.61 323.024 396.2C329.864 404.993 336.004 413.183 341.444 420.77C342.004 421.59 342.564 422.37 343.114 423.11C407.664 513.84 377.114 521.05 376.754 520.73L209.834 543.09L203.964 519.22L196.194 480.22C196.194 480.22 86.6536 446.15 28.5036 350.94L55.5036 320.82Z" fill="#438A5E"/>
<path d="M181.504 349.07C183.504 354.19 189.264 357.39 195.504 356.45C201.744 355.51 206.254 350.71 206.504 345.25L181.504 349.07Z" fill="white"/>
<path d="M209.844 543.07C208.284 538.07 206.944 533.07 205.604 527.98C204.264 522.89 203.094 517.84 201.924 512.74C200.754 507.64 199.734 502.52 198.754 497.39C197.774 492.26 196.874 487.11 196.074 481.94C194.497 471.601 193.459 461.187 192.964 450.74C192.664 440.31 192.804 429.74 195.404 419.56C194.469 424.685 193.97 429.88 193.914 435.09C193.774 440.29 193.914 445.49 194.244 450.68C194.574 455.87 195.034 461.05 195.624 466.23C196.214 471.41 196.934 476.55 197.724 481.7C199.224 492.01 201.144 502.26 203.174 512.48C204.187 517.6 205.26 522.707 206.394 527.8C207.504 532.9 208.654 538 209.844 543.07Z" fill="black"/>
<path d="M280.124 411.62C283.044 417.887 286.044 424.11 289.124 430.29C292.124 436.48 295.294 442.64 298.404 448.8L307.864 467.21L312.614 476.42C314.204 479.48 315.764 482.55 317.204 485.69C314.874 479.19 311.924 472.92 308.994 466.69C306.064 460.46 302.994 454.27 299.844 448.11C296.694 441.95 293.514 435.83 290.234 429.75C286.954 423.67 283.604 417.61 280.124 411.62Z" fill="black"/>
<path d="M330.414 486.18C321.645 484.975 312.791 484.493 303.944 484.74C295.085 484.928 286.25 485.733 277.504 487.15C260.394 489.97 242.104 495.08 227.754 504.54C243.324 496.1 260.034 491.54 277.754 488.71C286.438 487.307 295.196 486.402 303.984 486C308.384 485.82 312.784 485.67 317.194 485.72C321.604 485.77 326.014 485.85 330.414 486.18Z" fill="black"/>
<path d="M297.714 386.76C298.248 387.774 298.877 388.735 299.594 389.63C300.284 390.519 301.022 391.37 301.804 392.18C302.587 392.993 303.414 393.761 304.284 394.48C305.157 395.236 306.101 395.906 307.104 396.48C306.572 395.464 305.943 394.503 305.224 393.61C304.533 392.721 303.795 391.87 303.014 391.06C302.231 390.247 301.403 389.479 300.534 388.76C299.661 388.004 298.716 387.334 297.714 386.76Z" fill="black"/>
<path d="M285.504 398.8C285.273 399.916 285.149 401.051 285.134 402.19C285.059 404.43 285.24 406.671 285.674 408.87C285.869 409.995 286.177 411.097 286.594 412.16C286.833 411.045 286.96 409.91 286.974 408.77C287.038 406.53 286.854 404.289 286.424 402.09C286.219 400.967 285.911 399.866 285.504 398.8Z" fill="black"/>
<path d="M187.564 401.19C186.407 401.145 185.248 401.212 184.104 401.39C181.854 401.696 179.642 402.236 177.504 403C176.412 403.38 175.361 403.866 174.364 404.45C175.521 404.491 176.68 404.421 177.824 404.24C178.949 404.092 180.064 403.879 181.164 403.6C182.266 403.321 183.354 402.988 184.424 402.6C185.512 402.229 186.563 401.757 187.564 401.19Z" fill="black"/>
<path d="M155.944 430.27C155.146 429.44 154.272 428.687 153.334 428.02C152.414 427.36 151.464 426.74 150.484 426.17C149.51 425.609 148.509 425.099 147.484 424.64C146.432 424.158 145.337 423.776 144.214 423.5C145.011 424.327 145.885 425.077 146.824 425.74C147.739 426.409 148.69 427.026 149.674 427.59C150.647 428.154 151.648 428.668 152.674 429.13C153.726 429.611 154.82 429.993 155.944 430.27Z" fill="black"/>
<path d="M130.714 391.38C129.983 390.494 129.169 389.681 128.284 388.95C127.424 388.212 126.522 387.524 125.584 386.89C124.649 386.252 123.681 385.664 122.684 385.13C121.671 384.576 120.61 384.114 119.514 383.75C120.242 384.641 121.055 385.458 121.944 386.19C122.803 386.921 123.701 387.606 124.634 388.24C125.56 388.875 126.518 389.462 127.504 390C128.529 390.557 129.604 391.018 130.714 391.38Z" fill="black"/>
<path d="M119.634 409.71C118.49 409.531 117.331 409.461 116.174 409.5C115.037 409.52 113.902 409.6 112.774 409.74C111.646 409.876 110.528 410.076 109.424 410.34C108.293 410.585 107.188 410.937 106.124 411.39C107.268 411.572 108.426 411.645 109.584 411.61C111.861 411.574 114.128 411.289 116.344 410.76C117.471 410.515 118.573 410.163 119.634 409.71Z" fill="black"/>
<path d="M88.1337 392.63C87.8513 391.523 87.4663 390.445 86.9837 389.41C86.5137 388.41 85.9837 387.41 85.4337 386.41C84.8592 385.445 84.235 384.51 83.5637 383.61C82.8886 382.679 82.125 381.815 81.2837 381.03C81.5645 382.137 81.9495 383.215 82.4337 384.25C82.8953 385.279 83.4162 386.281 83.9937 387.25C84.5587 388.221 85.1833 389.156 85.8636 390.05C86.5323 390.984 87.2928 391.848 88.1337 392.63Z" fill="black"/>
<path d="M183.084 450.68C181.922 450.608 180.756 450.651 179.604 450.81C178.463 450.938 177.332 451.132 176.214 451.39C175.094 451.65 173.994 451.97 172.904 452.34C171.787 452.709 170.709 453.185 169.684 453.76C170.845 453.827 172.01 453.784 173.164 453.63C174.287 453.478 175.402 453.268 176.504 453C177.624 452.727 178.729 452.393 179.814 452C180.942 451.662 182.037 451.22 183.084 450.68Z" fill="black"/>
<path d="M307.724 419.84C307.484 420.954 307.357 422.09 307.344 423.23C307.28 425.47 307.465 427.71 307.894 429.91C308.092 431.034 308.4 432.136 308.814 433.2C309.044 432.084 309.168 430.949 309.184 429.81C309.219 428.689 309.189 427.567 309.094 426.45C309.003 425.336 308.853 424.228 308.644 423.13C308.439 422.007 308.131 420.906 307.724 419.84Z" fill="black"/>
<path d="M349.424 493.3C349.193 494.416 349.069 495.551 349.054 496.69C349.024 497.811 349.054 498.932 349.144 500.05C349.235 501.167 349.385 502.279 349.594 503.38C349.8 504.503 350.111 505.605 350.524 506.67C350.755 505.551 350.879 504.413 350.894 503.27C350.929 502.153 350.899 501.034 350.804 499.92C350.71 498.803 350.557 497.691 350.344 496.59C350.146 495.466 349.838 494.364 349.424 493.3Z" fill="black"/>
<path d="M331.044 428.9C331.689 429.847 332.422 430.731 333.234 431.54C334.025 432.348 334.856 433.116 335.724 433.84C336.595 434.558 337.507 435.225 338.454 435.84C339.398 436.491 340.403 437.05 341.454 437.51C340.809 436.56 340.075 435.673 339.264 434.86C338.478 434.05 337.646 433.286 336.774 432.57C335.899 431.856 334.988 431.188 334.044 430.57C333.095 429.925 332.091 429.366 331.044 428.9Z" fill="black"/>
<path d="M361.064 475.21C361.215 476.338 361.473 477.45 361.834 478.53C362.187 479.603 362.587 480.653 363.034 481.68C363.489 482.709 364.003 483.711 364.574 484.68C365.147 485.679 365.817 486.621 366.574 487.49C366.423 486.361 366.165 485.25 365.804 484.17C365.106 482.018 364.174 479.948 363.024 478C362.459 477.011 361.803 476.077 361.064 475.21Z" fill="black"/>
<path d="M325.734 455.41C326.379 456.357 327.112 457.241 327.924 458.05C329.502 459.675 331.252 461.124 333.144 462.37C334.091 463.014 335.095 463.57 336.144 464.03C335.502 463.077 334.768 462.19 333.954 461.38C333.165 460.573 332.334 459.809 331.464 459.09C330.595 458.373 329.687 457.705 328.744 457.09C327.795 456.437 326.787 455.875 325.734 455.41Z" fill="black"/>
<path d="M169.324 326.27C171.834 331.66 170.324 337.63 165.944 339.61C161.564 341.59 155.944 338.82 153.464 333.43C150.984 328.04 152.464 322.07 156.854 320.09C161.244 318.11 166.814 320.88 169.324 326.27Z" fill="#F19A5E"/>
<path d="M172.324 358.29C170.821 355.966 169.542 353.505 168.504 350.94C165.747 344.247 163.872 337.225 162.924 330.05C162.714 328.66 162.444 327.28 162.134 325.9C160.836 320.094 160.697 314.09 161.724 308.23C165.164 288.39 181.724 272.85 202.064 270.5C229.424 267.34 253.064 287.7 254.194 314.07C255.508 313.206 257.005 312.659 258.567 312.472C260.128 312.284 261.712 312.462 263.194 312.99C268.824 315.18 271.134 322.58 268.344 329.51C265.554 336.44 258.734 340.27 253.104 338.08C252.339 337.774 251.619 337.368 250.964 336.87C249.624 359.4 231.704 377.51 209.284 378.09C198.726 378.343 188.456 374.629 180.504 367.68C179.936 367.246 179.392 366.782 178.874 366.29C176.352 363.92 174.15 361.23 172.324 358.29Z" fill="#F7C29E"/>
<path d="M212.684 318.71C212.514 319.411 212.534 320.145 212.742 320.836C212.95 321.526 213.338 322.149 213.867 322.64C214.395 323.131 215.045 323.472 215.75 323.629C216.454 323.785 217.187 323.751 217.874 323.53C218.53 323.33 219.124 322.965 219.599 322.47C220.073 321.974 220.413 321.365 220.584 320.7C220.753 319.999 220.733 319.265 220.525 318.574C220.317 317.884 219.929 317.261 219.4 316.77C218.872 316.279 218.222 315.938 217.518 315.781C216.814 315.625 216.08 315.659 215.394 315.88C214.737 316.08 214.143 316.445 213.668 316.94C213.194 317.436 212.855 318.045 212.684 318.71Z" fill="#242424"/>
<path d="M177.824 321.88C177.653 322.581 177.672 323.315 177.88 324.006C178.088 324.697 178.476 325.32 179.005 325.81C179.535 326.3 180.185 326.641 180.89 326.795C181.595 326.95 182.328 326.914 183.014 326.69C183.67 326.49 184.264 326.125 184.739 325.63C185.214 325.134 185.553 324.525 185.724 323.86C185.895 323.159 185.875 322.425 185.667 321.734C185.46 321.043 185.071 320.421 184.542 319.93C184.013 319.44 183.362 319.1 182.658 318.945C181.953 318.79 181.22 318.826 180.534 319.05C179.877 319.25 179.283 319.615 178.808 320.11C178.334 320.606 177.995 321.215 177.824 321.88Z" fill="#242424"/>
<path d="M207.444 312C209.306 311.187 211.229 310.519 213.194 310C215.036 309.511 216.938 309.282 218.844 309.32C220.741 309.347 222.622 309.664 224.424 310.26L225.134 310.45C225.374 310.52 225.594 310.64 225.824 310.72L227.234 311.26C228.234 311.63 229.074 312.14 230.124 312.5C229.502 311.626 228.802 310.809 228.034 310.06C227.22 309.326 226.324 308.688 225.364 308.16C223.392 307.033 221.165 306.428 218.894 306.4C216.63 306.355 214.389 306.859 212.364 307.87C210.397 308.803 208.703 310.225 207.444 312Z" fill="#292929"/>
<path d="M191.104 313.25C189.587 311.67 187.689 310.506 185.594 309.87C183.436 309.182 181.144 309.028 178.914 309.42C176.675 309.784 174.568 310.717 172.794 312.13C171.93 312.799 171.145 313.564 170.454 314.41C169.815 315.269 169.253 316.183 168.774 317.14C169.774 316.62 170.554 315.99 171.434 315.48L172.744 314.73C172.964 314.62 173.154 314.47 173.374 314.36L174.054 314.06C175.741 313.204 177.548 312.608 179.414 312.29C181.293 311.964 183.208 311.903 185.104 312.11C187.131 312.327 189.138 312.709 191.104 313.25Z" fill="#292929"/>
<path d="M199.174 316.5C197.761 318.658 196.498 320.91 195.394 323.24C194.249 325.559 193.277 327.959 192.484 330.42C192.079 331.686 191.804 332.989 191.664 334.31C191.639 334.67 191.639 335.03 191.664 335.39C191.664 335.58 191.734 335.78 191.774 335.97C191.829 336.196 191.92 336.412 192.044 336.61C192.117 336.718 192.197 336.822 192.284 336.92L192.484 337.1C192.614 337.21 192.744 337.34 192.874 337.44C193.164 337.64 193.434 337.85 193.724 338.02C194.857 338.717 196.06 339.294 197.314 339.74C198.545 340.191 199.809 340.548 201.094 340.81C198.774 339.743 196.552 338.475 194.454 337.02C194.204 336.84 193.984 336.63 193.754 336.44L193.444 336.13L193.294 335.98C193.299 335.954 193.299 335.926 193.294 335.9C193.149 335.431 193.121 334.933 193.214 334.45C193.39 333.237 193.674 332.042 194.064 330.88C194.794 328.48 195.704 326.1 196.584 323.71C197.464 321.32 198.344 318.94 199.174 316.5Z" fill="#F19A5E"/>
<path d="M236.184 257.32C236.184 257.32 222.104 247.07 192.334 251.32C162.564 255.57 158.154 271.91 158.334 294.71L161.114 319.49C161.114 319.49 169.394 312.79 177.674 289.49C177.674 289.49 195.984 307.24 203.094 304.38C210.204 301.52 199.024 288.59 199.024 288.59C199.024 288.59 234.144 316.07 254.244 314.39C254.244 314.39 263.484 278.19 247.504 266.58C247.504 266.58 258.794 266.21 259.204 263.92C259.614 261.63 253.384 258.74 242.684 260.92C242.684 260.92 249.134 244.92 244.684 243.73C240.234 242.54 236.184 257.32 236.184 257.32Z" fill="#292929"/>
<path d="M189.504 350.46C191.344 355.14 197.564 358.1 204.504 357.27C211.444 356.44 216.744 352.1 217.394 347.12L189.504 350.46Z" fill="white"/>
<path d="M109.584 518.72H446.834C449.413 518.72 451.504 520.811 451.504 523.39V540.98C451.504 543.559 449.413 545.65 446.834 545.65H109.584C107.004 545.65 104.914 543.559 104.914 540.98V523.39C104.914 520.811 107.004 518.72 109.584 518.72Z" fill="#1B4B94"/>
<path d="M210.404 511.06C219.544 505.7 231.204 505.68 240.714 507.06L242.104 507.34C249.564 508.88 249.274 512.89 248.724 514.72C248.635 515.005 248.459 515.256 248.22 515.435C247.982 515.615 247.692 515.714 247.394 515.72C246.234 515.72 244.744 515.85 242.744 516.08C231.054 517.39 242.824 530.64 238.254 530.86C232.494 531.13 233.574 518.71 230.574 519.03C224.924 519.65 232.134 530.42 228.414 531.18C224.344 532.02 227.224 518.64 220.734 519.25C217.244 519.58 222.084 531.59 217.964 530.86C213.644 530.09 216.884 519.25 212.964 519.58C207.104 520.07 214.764 530.45 210.444 531.18C207.804 531.56 203.934 514.85 210.404 511.06Z" fill="#F7C29E"/>
<path d="M119.164 0H437.254C439.833 0 441.924 2.09083 441.924 4.67V22.27C441.924 24.8492 439.833 26.94 437.254 26.94H119.164C116.584 26.94 114.494 24.8492 114.494 22.27V4.67C114.494 2.09083 116.584 0 119.164 0Z" fill="#1B4B94"/>
<path d="M119.964 129.46H436.454C438.033 129.46 439.314 130.74 439.314 132.32V143.11C439.314 144.69 438.033 145.97 436.454 145.97H119.964C118.384 145.97 117.104 144.69 117.104 143.11V132.32C117.104 130.74 118.384 129.46 119.964 129.46Z" fill="#1B4B94"/>
<path d="M347.874 15.66V144.27H341.774V15.66H347.874Z" fill="#1B4B94"/>
<path d="M217.254 15.65V144.26H211.154V15.65H217.254Z" fill="#1B4B94"/>
</svg>
